{
  "project_info": {
    "project_number": "696250109946",
    "project_id": "fir-course-a6367",
    "storage_bucket": "fir-course-a6367.appspot.com"
  },
  "client": [
    {
      "client_info": {
        "mobilesdk_app_id": "1:696250109946:android:a33156174cf561e9e59e43",
        "android_client_info": {
          "package_name": "com.famous.coader.phoneauthapp"
        }
      },
      "oauth_client": [
        {
          "client_id": "696250109946-3hlig9m19atqohqp6tq6o8gd6gb70ek1.apps.googleusercontent.com",
          "client_type": 3
        }
      ],
      "api_key": [
        {
          "current_key": "AIzaSyCFwY7VAyZ5FSGQq0M56wC-SjxIRTNWrEc"
        }
      ],
      "services": {
        "appinvite_service": {
          "other_platform_oauth_client": [
            {
              "client_id": "696250109946-3hlig9m19atqohqp6tq6o8gd6gb70ek1.apps.googleusercontent.com",
              "client_type": 3
            }
          ]
        }
      }
    },
    {
      "client_info": {
        "mobilesdk_app_id": "1:696250109946:android:75e21192505c109ae59e43",
        "android_client_info": {
          "package_name": "com.famouscoader.firebaseauth"
        }
      },
      "oauth_client": [
        {
          "client_id": "696250109946-ehd3uugevk3hantb76fscrsrk5170rdb.apps.googleusercontent.com",
          "client_type": 1,
          "android_info": {
            "package_name": "com.famouscoader.firebaseauth",
            "certificate_hash": "4dfd8bcd3d2d0957d024eb3eb0e6f1c94e28381b"
          }
        },
        {
          "client_id": "696250109946-3hlig9m19atqohqp6tq6o8gd6gb70ek1.apps.googleusercontent.com",
          "client_type": 3
        }
      ],
      "api_key": [
        {
          "current_key": "AIzaSyCFwY7VAyZ5FSGQq0M56wC-SjxIRTNWrEc"
        }
      ],
      "services": {
        "appinvite_service": {
          "other_platform_oauth_client": [
            {
              "client_id": "696250109946-3hlig9m19atqohqp6tq6o8gd6gb70ek1.apps.googleusercontent.com",
              "client_type": 3
            }
          ]
        }
      }
    },
    {
      "client_info": {
        "mobilesdk_app_id": "1:696250109946:android:07459eb56f702489e59e43",
        "android_client_info": {
          "package_name": "com.famouscoader.firebasecourse"
        }
      },
      "oauth_client": [
        {
          "client_id": "696250109946-3hlig9m19atqohqp6tq6o8gd6gb70ek1.apps.googleusercontent.com",
          "client_type": 3
        }
      ],
      "api_key": [
        {
          "current_key": "AIzaSyCFwY7VAyZ5FSGQq0M56wC-SjxIRTNWrEc"
        }
      ],
      "services": {
        "appinvite_service": {
          "other_platform_oauth_client": [
            {
              "client_id": "696250109946-3hlig9m19atqohqp6tq6o8gd6gb70ek1.apps.googleusercontent.com",
              "client_type": 3
            }
          ]
        }
      }
    }
  ],
  "configuration_version": "1"
}